# Blender v2.92.0 OBJ File: 'skeleton.blend'
# www.blender.org
mtllib skeleton.mtl
o Cone
v -0.070711 0.215251 -0.070711
v 0.070711 0.215251 -0.070711
v 0.070711 0.215251 0.070711
v -0.070711 0.215251 0.070711
v 0.000000 1.000000 0.000000
v -0.070711 0.215251 -0.070711
v -0.070711 0.215251 0.070711
v 0.070711 0.215251 0.070711
v 0.070711 0.215251 -0.070711
v -0.000000 0.000000 0.000000
vt 0.250000 0.490000
vt 0.250000 0.250000
vt 0.490000 0.250000
vt 0.250000 0.010000
vt 0.750000 0.490000
vt 0.990000 0.250000
vt 0.750000 0.010000
vt 0.510000 0.250000
vt 0.010000 0.250000
vt 0.250000 0.490000
vt 0.250000 0.250000
vt 0.490000 0.250000
vt 0.250000 0.010000
vt 0.750000 0.490000
vt 0.990000 0.250000
vt 0.750000 0.010000
vt 0.510000 0.250000
vt 0.010000 0.250000
vn 0.0000 0.0897 -0.9960
vn 0.9960 0.0897 0.0000
vn 0.0000 -1.0000 -0.0000
vn -0.0000 0.0897 0.9960
vn -0.9960 0.0897 0.0000
vn -0.9501 -0.3121 0.0000
vn -0.0000 -0.3121 0.9501
vn 0.0000 1.0000 -0.0000
vn 0.9501 -0.3121 -0.0000
vn 0.0000 -0.3121 -0.9501
usemtl None
s off
f 1/1/1 5/2/1 2/3/1
f 2/3/2 5/2/2 3/4/2
f 1/5/3 2/6/3 3/7/3 4/8/3
f 3/4/4 5/2/4 4/9/4
f 4/9/5 5/2/5 1/1/5
f 6/10/6 10/11/6 7/12/6
f 7/12/7 10/11/7 8/13/7
f 6/14/8 7/15/8 8/16/8 9/17/8
f 8/13/9 10/11/9 9/18/9
f 9/18/10 10/11/10 6/10/10
